M48
; DRILL file {KiCad (5.1.10)-1} date 06/18/21 15:36:47
; FORMAT={2:4/ absolute / inch / suppress leading zeros}
; #@! TF.CreationDate,2021-06-18T15:36:47+03:00
; #@! TF.GenerationSoftware,Kicad,Pcbnew,(5.1.10)-1
; #@! TF.FileFunction,Plated,1,2,PTH
FMAT,2
INCH,TZ
T1C0.0157
T2C0.0197
T3C0.0217
T4C0.0315
T5C0.0394
%
G90
G05
T1
X44275Y-20890
X44275Y-40955
X44295Y-21890
X44295Y-41955
X44655Y-21400
X44655Y-41465
X44685Y-24880
X44685Y-44945
X45101Y-33590
X45101Y-53655
X46412Y-21418
X46412Y-41483
X46415Y-23130
X46415Y-43195
X46427Y-24880
X46427Y-44945
X46501Y-34794
X46501Y-54859
X46595Y-36720
X46595Y-56785
X47885Y-33970
X47885Y-54035
X48169Y-21418
X48169Y-23149
X48169Y-24880
X48169Y-41483
X48169Y-43214
X48169Y-44945
X48525Y-37480
X48525Y-57545
X49275Y-37630
X49275Y-57695
X49305Y-37235
X49305Y-57300
X49315Y-33550
X49315Y-53615
X49325Y-34390
X49325Y-34990
X49325Y-54455
X49325Y-55055
X50302Y-32487
X50302Y-52552
X50325Y-35320
X50325Y-55385
X50595Y-35910
X50595Y-55975
X50945Y-23710
X50945Y-24845
X50945Y-25980
X50945Y-27115
X50945Y-28250
X50945Y-43775
X50945Y-44910
X50945Y-46045
X50945Y-47180
X50945Y-48315
X51285Y-22970
X51285Y-43035
X51475Y-29050
X51475Y-49115
X51945Y-22400
X51945Y-42465
X52115Y-29050
X52115Y-49115
X52180Y-33240
X52180Y-53305
X52235Y-34740
X52235Y-54805
X52365Y-32180
X52365Y-52245
X52695Y-21900
X52695Y-41965
X52755Y-29050
X52755Y-49115
X52895Y-32860
X52895Y-52925
X52925Y-24950
X52925Y-26460
X52925Y-45015
X52925Y-46525
X52933Y-26002
X52933Y-46067
X52965Y-25360
X52965Y-45425
X53525Y-29960
X53525Y-50025
X53675Y-20040
X53675Y-20640
X53675Y-21240
X53675Y-21840
X53675Y-40105
X53675Y-40705
X53675Y-41305
X53675Y-41905
X54175Y-29960
X54175Y-50025
X54330Y-21840
X54330Y-41905
X54699Y-28150
X54699Y-48215
X54745Y-26790
X54745Y-46855
X54825Y-29960
X54825Y-50025
X54895Y-27550
X54895Y-47615
X54985Y-21840
X54985Y-41905
X55135Y-35170
X55135Y-55235
X55345Y-25260
X55345Y-45325
X55365Y-33510
X55365Y-53575
X55395Y-36020
X55395Y-56085
X55505Y-30380
X55505Y-50445
X55735Y-25140
X55735Y-45205
X55775Y-28180
X55775Y-48245
X55843Y-21840
X55843Y-41905
X55975Y-36200
X55975Y-56265
X56190Y-30380
X56190Y-50445
X56415Y-28170
X56415Y-48235
X56510Y-21840
X56510Y-41905
X56666Y-25141
X56666Y-45206
X56735Y-26410
X56735Y-46475
X57177Y-21840
X57177Y-22620
X57177Y-41905
X57177Y-42685
X57187Y-20040
X57187Y-20640
X57187Y-21240
X57187Y-40105
X57187Y-40705
X57187Y-41305
X57365Y-25160
X57365Y-45225
X57525Y-27730
X57525Y-47795
X57841Y-24948
X57841Y-45013
X57905Y-22620
X57905Y-42685
X57915Y-23470
X57915Y-24320
X57915Y-43535
X57915Y-44385
X57945Y-27790
X57945Y-47855
X58067Y-25608
X58067Y-45673
X58081Y-34368
X58081Y-54433
X58105Y-34950
X58105Y-55015
X58249Y-28046
X58249Y-48111
X58365Y-26420
X58365Y-46485
X58472Y-25783
X58472Y-45848
X58480Y-27309
X58480Y-47374
X58505Y-26870
X58505Y-46935
X58625Y-32340
X58625Y-52405
X58635Y-24320
X58635Y-44385
X59085Y-28170
X59085Y-48235
X59215Y-36020
X59215Y-56085
X59355Y-24320
X59355Y-44385
X59650Y-28165
X59650Y-48230
X59695Y-28800
X59695Y-29565
X59695Y-30330
X59695Y-48865
X59695Y-49630
X59695Y-50395
X60075Y-24320
X60075Y-44385
X60205Y-35070
X60205Y-55135
X60305Y-32260
X60305Y-52325
X60425Y-26250
X60425Y-46315
X60498Y-27023
X60498Y-47088
X60745Y-25570
X60745Y-45635
X60781Y-28060
X60781Y-48125
X61115Y-32970
X61115Y-53035
X61853Y-35430
X61853Y-55495
X62145Y-31380
X62145Y-51445
X62345Y-26290
X62345Y-26880
X62345Y-46355
X62345Y-46945
X62625Y-33240
X62625Y-53305
X62755Y-30360
X62755Y-50425
X63169Y-28667
X63169Y-48732
X63415Y-30460
X63415Y-50525
X63425Y-32130
X63425Y-52195
X63575Y-23550
X63575Y-43615
X64300Y-33015
X64300Y-53080
X64625Y-26330
X64625Y-46395
X65115Y-30960
X65115Y-51025
X65225Y-23550
X65225Y-25820
X65225Y-43615
X65225Y-45885
X65555Y-28220
X65555Y-48285
X66025Y-27770
X66025Y-30406
X66025Y-47835
X66025Y-50471
X66160Y-31115
X66160Y-51180
X66435Y-24420
X66435Y-24770
X66435Y-44485
X66435Y-44835
X66705Y-28210
X66705Y-48275
X66875Y-23550
X66875Y-25820
X66875Y-43615
X66875Y-45885
X67065Y-27780
X67065Y-47845
X67185Y-28828
X67185Y-48893
X67415Y-24490
X67415Y-25110
X67415Y-44555
X67415Y-45175
X68240Y-30405
X68240Y-50470
X68775Y-36970
X68775Y-57035
X69055Y-25845
X69055Y-45910
X69159Y-28770
X69159Y-48835
X69555Y-27740
X69555Y-47805
X69743Y-26790
X69743Y-46855
X70410Y-23790
X70410Y-43855
X70635Y-34160
X70635Y-35370
X70635Y-54225
X70635Y-55435
X70645Y-23560
X70645Y-43625
X71540Y-34750
X71540Y-54815
X71665Y-27380
X71665Y-47445
X72885Y-36965
X72885Y-57030
T4
X43735Y-37964
X43735Y-58029
X44735Y-37964
X44735Y-58029
X45735Y-37964
X45735Y-58029
X47631Y-34740
X47631Y-54805
X48419Y-34740
X48419Y-54805
T5
X41125Y-27820
X41125Y-28820
X41125Y-29820
X41125Y-30820
X41125Y-47885
X41125Y-48885
X41125Y-49885
X41125Y-50885
X54315Y-20740
X54315Y-40805
X55429Y-20716
X55429Y-40781
X56545Y-20740
X56545Y-40805
X73115Y-22870
X73115Y-23870
X73115Y-24870
X73115Y-25870
X73115Y-26870
X73115Y-27870
X73115Y-28870
X73115Y-29870
X73115Y-30870
X73115Y-31870
X73115Y-32870
X73115Y-33870
X73115Y-34870
X73115Y-35870
X73115Y-42935
X73115Y-43935
X73115Y-44935
X73115Y-45935
X73115Y-46935
X73115Y-47935
X73115Y-48935
X73115Y-49935
X73115Y-50935
X73115Y-51935
X73115Y-52935
X73115Y-53935
X73115Y-54935
X73115Y-55935
T2
G00X52511Y-38047
M15
G01X52511Y-38303
M16
G05
G00X52511Y-58112
M15
G01X52511Y-58368
M16
G05
G00X55267Y-38047
M15
G01X55267Y-38303
M16
G05
G00X55267Y-58112
M15
G01X55267Y-58368
M16
G05
T3
G00X52846Y-37112
M15
G01X52964Y-37112
M16
G05
G00X52846Y-57177
M15
G01X52964Y-57177
M16
G05
G00X54814Y-37112
M15
G01X54932Y-37112
M16
G05
G00X54814Y-57177
M15
G01X54932Y-57177
M16
G05
T0
M30
