(module SMA-J-P-H-ST-EM1 (layer F.Cu) (tedit 6093EA3D)
  (fp_text reference REF** (at -0.34105 -3.66967) (layer F.SilkS)
    (effects (font (size 1 1) (thickness 0.015)))
  )
  (fp_text value SAMTEC_SMA-J-P-H-ST-EM1 (at 11.20429 4.15) (layer F.Fab)
    (effects (font (size 1 1) (thickness 0.015)))
  )
  (fp_circle (center 0.03 -2.62) (end 0.13 -2.62) (layer F.Fab) (width 0.2))
  (fp_line (start -3.75 2.15) (end -3.75 -2.55) (layer F.CrtYd) (width 0.05))
  (fp_line (start -3.415 2.15) (end -3.75 2.15) (layer F.CrtYd) (width 0.05))
  (fp_line (start -3.415 3.15) (end -3.415 2.15) (layer F.CrtYd) (width 0.05))
  (fp_line (start 3.415 3.15) (end -3.415 3.15) (layer F.CrtYd) (width 0.05))
  (fp_line (start 3.415 2.15) (end 3.415 3.15) (layer F.CrtYd) (width 0.05))
  (fp_line (start 3.75 2.15) (end 3.415 2.15) (layer F.CrtYd) (width 0.05))
  (fp_line (start 3.75 -2.55) (end 3.75 2.15) (layer F.CrtYd) (width 0.05))
  (fp_line (start -3.75 -2.55) (end 3.75 -2.55) (layer F.CrtYd) (width 0.05))
  (fp_circle (center 0.03 -2.62) (end 0.13 -2.62) (layer F.SilkS) (width 0.2))
  (fp_line (start 1 -1.91) (end 1.8 -1.91) (layer F.SilkS) (width 0.2))
  (fp_line (start -1.8 -1.91) (end -1 -1.91) (layer F.SilkS) (width 0.2))
  (fp_line (start 1 1.9) (end 1.8 1.9) (layer F.SilkS) (width 0.2))
  (fp_line (start -1.8 1.9) (end -1 1.9) (layer F.SilkS) (width 0.2))
  (fp_line (start 3.175 -1.91) (end 3.165 1.9) (layer F.Fab) (width 0.1))
  (fp_line (start -3.175 -1.91) (end 3.175 -1.91) (layer F.Fab) (width 0.1))
  (fp_line (start -3.165 1.9) (end -3.175 -1.91) (layer F.Fab) (width 0.1))
  (fp_line (start 3.165 1.9) (end 5 1.9) (layer F.Fab) (width 0.1))
  (fp_line (start -3.165 1.9) (end 3.165 1.9) (layer F.Fab) (width 0.1))
  (fp_line (start -5 1.9) (end -3.165 1.9) (layer F.Fab) (width 0.1))
  (fp_line (start -3.165 2.15) (end -3.165 1.9) (layer F.Fab) (width 0.1))
  (fp_line (start 3.165 2.15) (end -3.165 2.15) (layer F.Fab) (width 0.1))
  (fp_line (start 3.165 1.9) (end 3.165 2.15) (layer F.Fab) (width 0.1))
  (fp_text user PCB~EDGE (at 4.30403 1.70159) (layer F.Fab)
    (effects (font (size 0.48 0.48) (thickness 0.015)))
  )
  (pad 1 smd rect (at 0 0) (size 1.27 3.6) (layers F.Cu F.Paste F.Mask))
  (pad 2_1 smd rect (at -2.825 -0.2) (size 1.35 4.2) (layers F.Cu F.Paste F.Mask))
  (pad 3_1 smd rect (at 2.825 -0.2) (size 1.35 4.2) (layers F.Cu F.Paste F.Mask))
  (pad 2_2 smd rect (at -2.825 -0.2) (size 1.35 4.2) (layers B.Cu B.Paste B.Mask))
  (pad 3_2 smd rect (at 2.825 -0.2) (size 1.35 4.2) (layers B.Cu B.Paste B.Mask))
  (pad 1 thru_hole circle (at 0 0) (size 1.27 1.27) (drill 1) (layers *.Cu *.Mask))
  (pad 2 thru_hole circle (at -2.825 0) (size 1.27 1.27) (drill 1) (layers *.Cu *.Mask))
  (pad 2 thru_hole circle (at 2.825 0) (size 1.27 1.27) (drill 1) (layers *.Cu *.Mask))
)
